^C:\USERS\RDKARCH\ANARCHY ONLINE\CLICKSAVER\AOHOOK\RELEASE\AOHOOK.OBJ|C:\USERS\RDKARCH\ANARCHY ONLINE\CLICKSAVER\MADCODEHOOKLIBL\DLL\MADCODEHOOKLIB - MICROSOFT.LIB
C:\USERS\RDKARCH\ANARCHY ONLINE\CLICKSAVER\AOHOOK.DLL
C:\USERS\RDKARCH\ANARCHY ONLINE\CLICKSAVER\AOHOOK\RELEASE\AOHOOK.DLL.INTERMEDIATE.MANIFEST
