^C:\USERS\RDKARCH\ANARCHY ONLINE\CLICKSAVER\AOHOOK\RELEASE\AOHOOK.OBJ|C:\USERS\RDKARCH\ANARCHY ONLINE\CLICKSAVER\MADCODEHOOKLIBL\DLL\MADCODEHOOKLIB - MICROSOFT.LIB
/ERRORREPORT:PROMPT /OUT:"../AOHook.dll" /INCREMENTAL:NO /NOLOGO kernel32.lib user32.lib gdi32.lib winspool.lib comdlg32.lib advapi32.lib shell32.lib ole32.lib oleaut32.lib uuid.lib odbc32.lib odbccp32.lib /MANIFEST /ManifestFile:".\Release\AOHook.dll.intermediate.manifest" /MANIFESTUAC:"level='asInvoker' uiAccess='false'" /PDB:".\Release/AOHook.pdb" /TLBID:1 /DYNAMICBASE:NO /IMPLIB:".\Release/AOHook.lib" /MACHINE:X86 /DLL .\Release/AOHook.obj
"..\madCodeHookLibL\Dll\madCodeHookLib - microsoft.lib"
