1h Blunt,1 Handed Blunt Weapons     ,Right Arm,Right Wrist,Right Hand,1
1h Edged,1 Handed Edged Weapon     ,Right Arm,Right Wrist,Right Hand,1
2h Blunt,2 Handed Blunt Weapons     ,Right Arm,Left Arm,Chest,1
2h Edged,2 Handed Edged Weapons     ,Right Arm,Left Arm,Waist,1
Adventuring,Adventuring     ,Leg,Waist,Chest,1
Agility,Agility,Leg,Feet,Waist,2
Aimed Shot,Aimed Shot     ,Eye,Right Wrist,Right Hand,1
Assault Rif,Assault Rifle     ,Right Arm,Right Hand,Eye,1
Bio.Metamor,Biological Metamorphosis     ,Head,Chest,Waist,1
Body Dev,Body Development     ,Chest,Waist,Leg,2
Bow,Bow     ,Right Arm,Left Arm,Eye,1
Bow Spc Att,Bow Special Attack,Head,Right Hand,Right Wrist,1
Brawling,Brawling     ,Left Arm,Right Arm,Waist,1
Break & Entry,Break & Entry,Right Arm,Left Arm,Chest,1
Burst,Burst     ,Right Arm,Right Wrist,Right Hand,1
Chemical AC,Chemical AC     ,Waist,Right Arm,Left Arm,3
Chemistry,Chemistry     ,Head,Eye,Right Hand,1
Cold AC,Cold AC     ,Waist,Right Hand,Left Hand,3
Comp. Liter,Computer Literacy     ,Head,Eye,Right Hand,1
Concealment,Concealment     ,Feet,Ear,Eye,1
Dimach,Dimach     ,Chest,Head,Waist,1
Disease AC,Disease and Poison AC     ,Head,Leg,Chest,3
Dodge-Rng,Dodge Ranged Attacks     ,Leg,Feet,Waist,1
Duck-Exp,Duck Explosions,Leg,Waist,Feet,1
Elec. Engi,Electrical Engineering     ,Eye,Head,Right Hand,1
Energy AC,Energy AC,Chest,Leg,Waist,3
Evade-ClsC,Evade Close Combat,Feet,Leg,Waist,1
Fast Attack,Fast Attack     ,Left Hand,Right Hand,Right Arm,1
Fire AC,Fire Armor-Class,Waist,Left Hand,Right Hand,3
First Aid,First Aid     ,Head,Right Hand,Left Hand,1
Fling Shot,Fling Shot     ,Right Arm,Right Hand,Right Wrist,1
Full Auto,Full Auto     ,Right Arm,Right Wrist,Waist,1
Grenade,Grenade Throwing     ,Right Arm,Eye,Right Hand,1
Heavy Weapons,Heavy Weapons     ,Right Arm,Eye,Right Hand,1
Imp/Proj AC,Imp/Proj AC,Leg,Chest,Waist,3
Intelligence,Intelligence     ,Head,Eye,Ear,2
Map Navig,Map Navigation     ,Eye,Head,Ear,1
Martial Arts,Martial Arts     ,Right Hand,Feet,Left Hand,1
Matter Crea,Matter Creation     ,Head,Right Hand,Eye,1
Matt.Metam,Matter Metamorphosis     ,Head,Chest,Left Arm,1
Max Health,Max Health,Chest,Waist,Leg,4
Max Nano,Max Nano,Head,Waist,Chest,4
Mech. Engi,Mechanical engineering     ,Head,Eye,Right Arm,1
Melee Ener,Melee energy Weapons     ,Head,Left Wrist,Right Wrist,1
Melee. Init,Melee Weapons Initiative     ,Feet,Leg,Waist,1
Slashing Protection,Melee/MA  AC  ,Chest,Waist,Leg,3
MG / SMG,MG & SMG     ,Right Arm,Right Hand,Chest,1
Mult. Melee,Multiple Melee Weapons     ,Left Wrist,Eye,Right Wrist,1
Multi Ranged,Multiple Ranged Weapons     ,Left Wrist,Right Wrist,Eye,1
NanoC. Init,Nano Initiative     ,Head,Eye,Chest,1
Nano Pool,Nano Pool     ,Chest,Head,Waist,2
Nano Progra,Nano Programming     ,Head,Eye,Right Hand,1
Nano Resist,Nano Resist,Head,Right Wrist,Left Wrist,1
Parry,Parry     ,Right Wrist,Left Wrist,Right Arm,1
Perception,Perception,Ear,Eye,Head,1
Pharma Tech,Pharmacological Technology     ,Head,Eye,Right Hand,1
Physic. Init,Physical and MA Initiative     ,Feet,Right Arm,Left Arm,1
Piercing,Piercing     ,Right Arm,Left Arm,Waist,1
Pisol,Pistol     ,Right Wrist,Right Hand,Eye,1
Psychic,Psychic     ,Head,Chest,Ear,2
Psycho Modi,Psychological Modifications     ,Head,Eye,Ear,1
Psychology,Psychology     ,Head,Ear,Eye,1
Quantum FT,Quantum Force Field Technology,Head,Eye,Right Hand,1
Radiation AC,Radiation AC     ,Waist,Left Arm,Right Arm,3
Ranged Energy,Ranged energy weapon     ,Head,Eye,Left Hand,1
Ranged Init.,Ranged Initiative     ,Right Wrist,Head,Right Hand,1
Rifle,Rifle     ,Eye,Right Wrist,Left Wrist,1
Riposte,Riposte     ,Right Wrist,Left Wrist,Right Arm,1
Run Speed,Run Speed     ,Right Wrist,Left Wrist,Leg,1
Sense,Sense,Chest,Waist,Head,2
Sensory Imp,Sensory Improvement & Modification,Head,Eye,Chest,1
Shapr Obj,Sharp Object Throwing     ,Right Wrist,Right Hand,Eye,1
Shotgun,Shotgun     ,Right Arm,Right Hand,Waist,1
Sneak Atck,Sneak Attack     ,Feet,Right Wrist,Eye,1
Stamina,Stamina     ,Chest,Leg,Waist,2
Strength,Strength     ,Right Arm,Left Arm,Chest,2
Swimming,Swimming     ,Leg,Right Arm,Left Arm,1
Time & Space,Time & Space     ,Head,Right Hand,Eye,1
Trap Disarm,Trap Disarmament     ,Right Hand,Left Hand,Head,1
Treatment,Treatment     ,Head,Eye,Right Hand,1
Tutoring,Tutoring     ,Eye,Ear,Head,1
Vehicle Air,Vehicle Airborne,Eye,Ear,Head,1
Vehicle Grnd,Vehicle Ground     ,Head,Eye,Ear,1
Vechicle Hydr,Vehicle Water    ,Head,Eye,Ear,1
Weapon Smt,Weapon Smithing     ,Right Hand,Head,Eye,1
Nano Delta Jobe, +Nano Delta,Right Wrist,Right Arm,Feet,2
Heal Delta Jobe, +Health Delta,Left Arm,Feet,Leg,2
% Add All Def. Jobe, Add All Def,Left Arm,Right Arm,Feet,5
% Add All Off Jobe, Add All Off,Left Arm,Right Arm,Feet,5
Max NCU Jobe, +Max NCU,Ear,Right Wrist,Leg,6
% Add. Xp Jobe, +Add % XP,Ear,Feet,Leg,7
Nano Formula Interrupt Modifier Jobe, Nano Interrupt Modifier,Leg,Left Hand,Chest,
% Add. Chem. Dam. Jobe, +Chemical Damage,Right Hand,Left Wrist,Right Wrist,7
Energy Damage Add Jobe, +Energy Damage,Right Hand,Left Wrist,Right Wrist,7
% Add. Fire Dam. Jobe, +Fire Damage,Right Hand,Left Wrist,Right Wrist,7
% Add. Melee Dam. Jobe, +Melee Damage,Right Hand,Left Wrist,Right Wrist,7
% Add. Poison Dam. Jobe, +Poison Damage,Right Hand,Left Wrist,Right Wrist,7
% Add. Proj. Dam. Jobe, +Projectile Damage,Right Hand,Left Wrist,Right Wrist,7
% Add. Rad. Dam. Jobe, +Radiation Damage,Right Hand,Left Wrist,Right Wrist,7
Shield Chemical AC Jobe, +Chemical Damage Shield,Left Hand,Feet,Left Wrist,7
Shield Cold AC Jobe, +Cold Damage Shield,Left Hand,Feet,Left Wrist,7
Shield Energy AC Jobe, +Energy Damage Shield,Left Wrist,Left Hand,Leg,7
Shield Fire AC Jobe, +Fire Damage Shield,Left Wrist,Left Hand,Leg,7
Shield Melee AC Jobe, +Melee Damage Shield,Left Hand,Feet,Left Wrist,7
Shield Poison AC Jobe, +Poison Damage Shield,Left Hand,Feet,Left Wrist,7
Shield Projectile AC Jobe, +Projectile Damage Shield,Left Wrist,Left Hand,Leg,7
Shield Radiation AC Jobe, +Radiation Damage Shield,Left Wrist,Left Hand,Leg,7
Skill Time Lock Modifier Jobe, -Skill Lock Time,Leg,Left Hand,Chest,7
Nano Point Cost Modifier Jobe, -Nano Cost%,Waist,Ear,Left Arm,7
RangeInc. NF Jobe, +Nano Range%,Left Arm,Left Hand,Right Arm,7
RangeInc. Weapon Jobe, +Weapon Range%,Eye,Feet,Right Arm,7
