#C18 ROME GREEN / 740
#C20 
Listed below is information for Land Control Areas and DynaCamps for the Rome Green playfield.


#C19 _______________________________#C19

Land Control Areas#C20
There are no Land Control Areas located in the Rome Green playfield.


#C19 _______________________________#C19

DynaCamps#C20
There are no DynaCamps located in the Rome Green playfield.


#C19 _______________________________#C19

#L "- Playfield Index" "/showfile info-playfield.txt"
    #L "DynaCamps" "/showfile info-dynacamp.txt"
    #L "Land Control Areas" "/showfile info-lca.txt"